Aug-12 15:51:26.737 [main] DEBUG nextflow.cli.Launcher - $> nextflow kuberun 'https://gitlab.com/leonardobestapp/exer_kubernetes' -c nextflow.config -profile cloud
Aug-12 15:51:26.895 [main] DEBUG nextflow.scm.AssetManager - Repository URL: https://gitlab.com/leonardobestapp/exer_kubernetes; Project: leonardobestapp/exer_kubernetes; Hub provider: gitlab
Aug-12 15:51:26.904 [main] DEBUG nextflow.scm.RepositoryProvider - Request [credentials -:-] -> https://gitlab.com/api/v4/projects/leonardobestapp%2Fexer_kubernetes
Aug-12 15:51:27.892 [main] DEBUG nextflow.scm.RepositoryProvider - Request [credentials -:-] -> https://gitlab.com/api/v4/projects/leonardobestapp%2Fexer_kubernetes/repository/files/nextflow.config?ref=master
Aug-12 15:51:28.513 [main] DEBUG nextflow.config.ConfigBuilder - Found config local: /Users/weiguo/Documents/git_oxford/exer_kubernetes/nextflow.config
Aug-12 15:51:28.517 [main] DEBUG nextflow.config.ConfigBuilder - User config file: https://gitlab.com/leonardobestapp/exer_kubernetes/nextflow.config
Aug-12 15:51:28.518 [main] DEBUG nextflow.config.ConfigBuilder - User config file: /Users/weiguo/Documents/git_oxford/exer_kubernetes/nextflow.config
Aug-12 15:51:28.518 [main] DEBUG nextflow.config.ConfigBuilder - Parsing config file: /Users/weiguo/Documents/git_oxford/exer_kubernetes/nextflow.config
Aug-12 15:51:28.518 [main] DEBUG nextflow.config.ConfigBuilder - Parsing config file: https://gitlab.com/leonardobestapp/exer_kubernetes/nextflow.config
Aug-12 15:51:28.518 [main] DEBUG nextflow.config.ConfigBuilder - Parsing config file: /Users/weiguo/Documents/git_oxford/exer_kubernetes/nextflow.config
Aug-12 15:51:28.539 [main] DEBUG nextflow.config.ConfigBuilder - Applying config profile: `cloud`
Aug-12 15:51:29.091 [main] DEBUG nextflow.config.ConfigBuilder - Applying config profile: `cloud`
Aug-12 15:51:29.095 [main] DEBUG nextflow.config.ConfigBuilder - Applying config profile: `cloud`
Aug-12 15:51:29.101 [main] DEBUG nextflow.config.ConfigBuilder - Available config profiles: [cloud, test, local]
Aug-12 15:51:29.216 [main] DEBUG nextflow.k8s.K8sConfig - Kubernetes workDir=/mnt/data/weiguo/work; projectDir=/mnt/data/projects; volumeClaims=[task-pv-claim]
Aug-12 15:51:29.303 [main] DEBUG nextflow.k8s.K8sDriverLauncher - Created K8s configMap with name: nf-config-0b2c559b
Aug-12 15:51:46.982 [main] DEBUG nextflow.k8s.K8sDriverLauncher - Wait for pod termination name=special-spence
Aug-12 15:51:47.156 [main] DEBUG nextflow.k8s.K8sDriverLauncher - Deleted K8s configMap with name: nf-config-0b2c559b
