Aug-12 15:33:30.949 [main] DEBUG nextflow.cli.Launcher - $> nextflow kuberun 'https://gitlab.com/leonardobestapp/exer_kubernetes' -c nextflow.config -profile cloud
Aug-12 15:33:31.119 [main] DEBUG nextflow.scm.AssetManager - Repository URL: https://gitlab.com/leonardobestapp/exer_kubernetes; Project: leonardobestapp/exer_kubernetes; Hub provider: gitlab
Aug-12 15:33:31.137 [main] DEBUG nextflow.scm.RepositoryProvider - Request [credentials -:-] -> https://gitlab.com/api/v4/projects/leonardobestapp%2Fexer_kubernetes
Aug-12 15:33:32.152 [main] DEBUG nextflow.scm.RepositoryProvider - Request [credentials -:-] -> https://gitlab.com/api/v4/projects/leonardobestapp%2Fexer_kubernetes/repository/files/nextflow.config?ref=master
Aug-12 15:33:32.763 [main] DEBUG nextflow.config.ConfigBuilder - Found config local: /Users/weiguo/Documents/git_oxford/exer_kubernetes/nextflow.config
Aug-12 15:33:32.767 [main] DEBUG nextflow.config.ConfigBuilder - User config file: https://gitlab.com/leonardobestapp/exer_kubernetes/nextflow.config
Aug-12 15:33:32.767 [main] DEBUG nextflow.config.ConfigBuilder - User config file: /Users/weiguo/Documents/git_oxford/exer_kubernetes/nextflow.config
Aug-12 15:33:32.767 [main] DEBUG nextflow.config.ConfigBuilder - Parsing config file: /Users/weiguo/Documents/git_oxford/exer_kubernetes/nextflow.config
Aug-12 15:33:32.768 [main] DEBUG nextflow.config.ConfigBuilder - Parsing config file: https://gitlab.com/leonardobestapp/exer_kubernetes/nextflow.config
Aug-12 15:33:32.768 [main] DEBUG nextflow.config.ConfigBuilder - Parsing config file: /Users/weiguo/Documents/git_oxford/exer_kubernetes/nextflow.config
Aug-12 15:33:32.789 [main] DEBUG nextflow.config.ConfigBuilder - Applying config profile: `cloud`
Aug-12 15:33:33.320 [main] DEBUG nextflow.config.ConfigBuilder - Applying config profile: `cloud`
Aug-12 15:33:33.323 [main] DEBUG nextflow.config.ConfigBuilder - Applying config profile: `cloud`
Aug-12 15:33:33.329 [main] DEBUG nextflow.config.ConfigBuilder - Available config profiles: [cloud, test, local]
Aug-12 15:33:33.443 [main] DEBUG nextflow.k8s.K8sConfig - Kubernetes workDir=/mnt/data/weiguo/work; projectDir=/mnt/data/projects; volumeClaims=[task-pv-claim]
Aug-12 15:33:33.524 [main] DEBUG nextflow.k8s.K8sDriverLauncher - Created K8s configMap with name: nf-config-9f125b79
Aug-12 15:33:36.687 [main] ERROR nextflow.cli.Launcher - @unknown
nextflow.k8s.client.PodUnschedulableException: K8s pod configuration failed -- stat /mnt/data: no such file or directory
	at nextflow.k8s.client.K8sClient.checkInvalidWaitingState(K8sClient.groovy:276)
	at nextflow.k8s.client.K8sClient.podState(K8sClient.groovy:242)
	at nextflow.k8s.client.K8sClient$podState$1.call(Unknown Source)
	at nextflow.k8s.K8sDriverLauncher.waitPodStart(K8sDriverLauncher.groovy:190)
	at nextflow.k8s.K8sDriverLauncher.run(K8sDriverLauncher.groovy:125)
	at nextflow.cli.CmdKubeRun.run(CmdKubeRun.groovy:74)
	at nextflow.cli.Launcher.run(Launcher.groovy:460)
	at nextflow.cli.Launcher.main(Launcher.groovy:642)
Caused by: nextflow.k8s.client.K8sResponseException: 
  {
      "kind": "Pod",
      "apiVersion": "v1",
      "metadata": {
          "name": "mighty-spence",
          "namespace": "default",
          "selfLink": "/api/v1/namespaces/default/pods/mighty-spence/status",
          "uid": "1ffc664b-3768-40d3-865e-713685153700",
          "resourceVersion": "201721",
          "creationTimestamp": "2020-08-12T14:33:33Z",
          "labels": {
              "app": "nextflow",
              "runName": "mighty-spence"
          },
          "managedFields": [
              {
                  "manager": "Java",
                  "operation": "Update",
                  "apiVersion": "v1",
                  "time": "2020-08-12T14:33:33Z",
                  "fieldsType": "FieldsV1",
                  "fieldsV1": {
                      "f:metadata": {
                          "f:labels": {
                              ".": {
                                  
                              },
                              "f:app": {
                                  
                              },
                              "f:runName": {
                                  
                              }
                          }
                      },
                      "f:spec": {
                          "f:containers": {
                              "k:{\"name\":\"mighty-spence\"}": {
                                  ".": {
                                      
                                  },
                                  "f:command": {
                                      
                                  },
                                  "f:env": {
                                      ".": {
                                          
                                      },
                                      "k:{\"name\":\"NXF_ANSI_LOG\"}": {
                                          ".": {
                                              
                                          },
                                          "f:name": {
                                              
                                          },
                                          "f:value": {
                                              
                                          }
                                      },
                                      "k:{\"name\":\"NXF_ASSETS\"}": {
                                          ".": {
                                              
                                          },
                                          "f:name": {
                                              
                                          },
                                          "f:value": {
                                              
                                          }
                                      },
                                      "k:{\"name\":\"NXF_EXECUTOR\"}": {
                                          ".": {
                                              
                                          },
                                          "f:name": {
                                              
                                          },
                                          "f:value": {
                                              
                                          }
                                      },
                                      "k:{\"name\":\"NXF_WORK\"}": {
                                          ".": {
                                              
                                          },
                                          "f:name": {
                                              
                                          },
                                          "f:value": {
                                              
                                          }
                                      }
                                  },
                                  "f:image": {
                                      
                                  },
                                  "f:imagePullPolicy": {
                                      
                                  },
                                  "f:name": {
                                      
                                  },
                                  "f:resources": {
                                      
                                  },
                                  "f:terminationMessagePath": {
                                      
                                  },
                                  "f:terminationMessagePolicy": {
                                      
                                  },
                                  "f:volumeMounts": {
                                      ".": {
                                          
                                      },
                                      "k:{\"mountPath\":\"/etc/nextflow\"}": {
                                          ".": {
                                              
                                          },
                                          "f:mountPath": {
                                              
                                          },
                                          "f:name": {
                                              
                                          }
                                      },
                                      "k:{\"mountPath\":\"/mnt/data\"}": {
                                          ".": {
                                              
                                          },
                                          "f:mountPath": {
                                              
                                          },
                                          "f:name": {
                                              
                                          },
                                          "f:subPath": {
                                              
                                          }
                                      }
                                  }
                              }
                          },
                          "f:dnsPolicy": {
                              
                          },
                          "f:enableServiceLinks": {
                              
                          },
                          "f:restartPolicy": {
                              
                          },
                          "f:schedulerName": {
                              
                          },
                          "f:securityContext": {
                              
                          },
                          "f:terminationGracePeriodSeconds": {
                              
                          },
                          "f:volumes": {
                              ".": {
                                  
                              },
                              "k:{\"name\":\"vol-1\"}": {
                                  ".": {
                                      
                                  },
                                  "f:name": {
                                      
                                  },
                                  "f:persistentVolumeClaim": {
                                      ".": {
                                          
                                      },
                                      "f:claimName": {
                                          
                                      }
                                  }
                              },
                              "k:{\"name\":\"vol-2\"}": {
                                  ".": {
                                      
                                  },
                                  "f:configMap": {
                                      ".": {
                                          
                                      },
                                      "f:defaultMode": {
                                          
                                      },
                                      "f:name": {
                                          
                                      }
                                  },
                                  "f:name": {
                                      
                                  }
                              }
                          }
                      }
                  }
              },
              {
                  "manager": "kubelet",
                  "operation": "Update",
                  "apiVersion": "v1",
                  "time": "2020-08-12T14:33:35Z",
                  "fieldsType": "FieldsV1",
                  "fieldsV1": {
                      "f:status": {
                          "f:conditions": {
                              "k:{\"type\":\"ContainersReady\"}": {
                                  ".": {
                                      
                                  },
                                  "f:lastProbeTime": {
                                      
                                  },
                                  "f:lastTransitionTime": {
                                      
                                  },
                                  "f:message": {
                                      
                                  },
                                  "f:reason": {
                                      
                                  },
                                  "f:status": {
                                      
                                  },
                                  "f:type": {
                                      
                                  }
                              },
                              "k:{\"type\":\"Initialized\"}": {
                                  ".": {
                                      
                                  },
                                  "f:lastProbeTime": {
                                      
                                  },
                                  "f:lastTransitionTime": {
                                      
                                  },
                                  "f:status": {
                                      
                                  },
                                  "f:type": {
                                      
                                  }
                              },
                              "k:{\"type\":\"Ready\"}": {
                                  ".": {
                                      
                                  },
                                  "f:lastProbeTime": {
                                      
                                  },
                                  "f:lastTransitionTime": {
                                      
                                  },
                                  "f:message": {
                                      
                                  },
                                  "f:reason": {
                                      
                                  },
                                  "f:status": {
                                      
                                  },
                                  "f:type": {
                                      
                                  }
                              }
                          },
                          "f:containerStatuses": {
                              
                          },
                          "f:hostIP": {
                              
                          },
                          "f:podIP": {
                              
                          },
                          "f:podIPs": {
                              ".": {
                                  
                              },
                              "k:{\"ip\":\"172.17.0.7\"}": {
                                  ".": {
                                      
                                  },
                                  "f:ip": {
                                      
                                  }
                              }
                          },
                          "f:startTime": {
                              
                          }
                      }
                  }
              }
          ]
      },
      "spec": {
          "volumes": [
              {
                  "name": "vol-1",
                  "persistentVolumeClaim": {
                      "claimName": "task-pv-claim"
                  }
              },
              {
                  "name": "vol-2",
                  "configMap": {
                      "name": "nf-config-9f125b79",
                      "defaultMode": 420
                  }
              },
              {
                  "name": "default-token-sm5vk",
                  "secret": {
                      "secretName": "default-token-sm5vk",
                      "defaultMode": 420
                  }
              }
          ],
          "containers": [
              {
                  "name": "mighty-spence",
                  "image": "nextflow/nextflow:20.04.1",
                  "command": [
                      "/bin/bash",
                      "-c",
                      "source /etc/nextflow/init.sh; nextflow run https://gitlab.com/leonardobestapp/exer_kubernetes -name mighty-spence"
                  ],
                  "env": [
                      {
                          "name": "NXF_WORK",
                          "value": "/mnt/data/weiguo/work"
                      },
                      {
                          "name": "NXF_ASSETS",
                          "value": "/mnt/data/projects"
                      },
                      {
                          "name": "NXF_EXECUTOR",
                          "value": "k8s"
                      },
                      {
                          "name": "NXF_ANSI_LOG",
                          "value": "false"
                      }
                  ],
                  "resources": {
                      
                  },
                  "volumeMounts": [
                      {
                          "name": "vol-1",
                          "mountPath": "/mnt/data",
                          "subPath": "wei"
                      },
                      {
                          "name": "vol-2",
                          "mountPath": "/etc/nextflow"
                      },
                      {
                          "name": "default-token-sm5vk",
                          "readOnly": true,
                          "mountPath": "/var/run/secrets/kubernetes.io/serviceaccount"
                      }
                  ],
                  "terminationMessagePath": "/dev/termination-log",
                  "terminationMessagePolicy": "File",
                  "imagePullPolicy": "IfNotPresent"
              }
          ],
          "restartPolicy": "Never",
          "terminationGracePeriodSeconds": 30,
          "dnsPolicy": "ClusterFirst",
          "serviceAccountName": "default",
          "serviceAccount": "default",
          "nodeName": "minikube",
          "securityContext": {
              
          },
          "schedulerName": "default-scheduler",
          "tolerations": [
              {
                  "key": "node.kubernetes.io/not-ready",
                  "operator": "Exists",
                  "effect": "NoExecute",
                  "tolerationSeconds": 300
              },
              {
                  "key": "node.kubernetes.io/unreachable",
                  "operator": "Exists",
                  "effect": "NoExecute",
                  "tolerationSeconds": 300
              }
          ],
          "priority": 0,
          "enableServiceLinks": true
      },
      "status": {
          "phase": "Pending",
          "conditions": [
              {
                  "type": "Initialized",
                  "status": "True",
                  "lastProbeTime": null,
                  "lastTransitionTime": "2020-08-12T14:33:33Z"
              },
              {
                  "type": "Ready",
                  "status": "False",
                  "lastProbeTime": null,
                  "lastTransitionTime": "2020-08-12T14:33:33Z",
                  "reason": "ContainersNotReady",
                  "message": "containers with unready status: [mighty-spence]"
              },
              {
                  "type": "ContainersReady",
                  "status": "False",
                  "lastProbeTime": null,
                  "lastTransitionTime": "2020-08-12T14:33:33Z",
                  "reason": "ContainersNotReady",
                  "message": "containers with unready status: [mighty-spence]"
              },
              {
                  "type": "PodScheduled",
                  "status": "True",
                  "lastProbeTime": null,
                  "lastTransitionTime": "2020-08-12T14:33:33Z"
              }
          ],
          "hostIP": "192.168.64.29",
          "podIP": "172.17.0.7",
          "podIPs": [
              {
                  "ip": "172.17.0.7"
              }
          ],
          "startTime": "2020-08-12T14:33:33Z",
          "containerStatuses": [
              {
                  "name": "mighty-spence",
                  "state": {
                      "waiting": {
                          "reason": "CreateContainerConfigError",
                          "message": "stat /mnt/data: no such file or directory"
                      }
                  },
                  "lastState": {
                      
                  },
                  "ready": false,
                  "restartCount": 0,
                  "image": "nextflow/nextflow:20.04.1",
                  "imageID": "",
                  "started": false
              }
          ],
          "qosClass": "BestEffort"
      }
  }

	at nextflow.k8s.client.K8sClient.checkInvalidWaitingState(K8sClient.groovy:275)
	... 7 common frames omitted
