Aug-12 15:53:14.673 [main] DEBUG nextflow.cli.Launcher - $> nextflow kuberun 'https://gitlab.com/leonardobestapp/exer_kubernetes' -c nextflow.config -profile cloud
Aug-12 15:53:14.840 [main] DEBUG nextflow.scm.AssetManager - Repository URL: https://gitlab.com/leonardobestapp/exer_kubernetes; Project: leonardobestapp/exer_kubernetes; Hub provider: gitlab
Aug-12 15:53:14.860 [main] DEBUG nextflow.scm.RepositoryProvider - Request [credentials -:-] -> https://gitlab.com/api/v4/projects/leonardobestapp%2Fexer_kubernetes
Aug-12 15:53:15.914 [main] DEBUG nextflow.scm.RepositoryProvider - Request [credentials -:-] -> https://gitlab.com/api/v4/projects/leonardobestapp%2Fexer_kubernetes/repository/files/nextflow.config?ref=master
Aug-12 15:53:16.630 [main] DEBUG nextflow.config.ConfigBuilder - Found config local: /Users/weiguo/Documents/git_oxford/exer_kubernetes/nextflow.config
Aug-12 15:53:16.633 [main] DEBUG nextflow.config.ConfigBuilder - User config file: https://gitlab.com/leonardobestapp/exer_kubernetes/nextflow.config
Aug-12 15:53:16.634 [main] DEBUG nextflow.config.ConfigBuilder - User config file: /Users/weiguo/Documents/git_oxford/exer_kubernetes/nextflow.config
Aug-12 15:53:16.634 [main] DEBUG nextflow.config.ConfigBuilder - Parsing config file: /Users/weiguo/Documents/git_oxford/exer_kubernetes/nextflow.config
Aug-12 15:53:16.634 [main] DEBUG nextflow.config.ConfigBuilder - Parsing config file: https://gitlab.com/leonardobestapp/exer_kubernetes/nextflow.config
Aug-12 15:53:16.634 [main] DEBUG nextflow.config.ConfigBuilder - Parsing config file: /Users/weiguo/Documents/git_oxford/exer_kubernetes/nextflow.config
Aug-12 15:53:16.654 [main] DEBUG nextflow.config.ConfigBuilder - Applying config profile: `cloud`
Aug-12 15:53:17.194 [main] DEBUG nextflow.config.ConfigBuilder - Applying config profile: `cloud`
Aug-12 15:53:17.198 [main] DEBUG nextflow.config.ConfigBuilder - Applying config profile: `cloud`
Aug-12 15:53:17.203 [main] DEBUG nextflow.config.ConfigBuilder - Available config profiles: [cloud, test, local]
Aug-12 15:53:17.324 [main] DEBUG nextflow.k8s.K8sConfig - Kubernetes workDir=/mnt/data/weiguo/work; projectDir=/mnt/data/projects; volumeClaims=[task-pv-claim]
Aug-12 15:53:17.402 [main] DEBUG nextflow.k8s.K8sDriverLauncher - Created K8s configMap with name: nf-config-dca667d6
Aug-12 15:53:34.422 [main] DEBUG nextflow.k8s.K8sDriverLauncher - Wait for pod termination name=angry-heisenberg
Aug-12 15:53:34.496 [main] DEBUG nextflow.k8s.K8sDriverLauncher - Deleted K8s configMap with name: nf-config-dca667d6
