Aug-12 15:35:09.369 [main] DEBUG nextflow.cli.Launcher - $> nextflow kuberun 'https://gitlab.com/leonardobestapp/exer_kubernetes' -c nextflow.config -profile cloud
Aug-12 15:35:09.513 [main] DEBUG nextflow.scm.AssetManager - Repository URL: https://gitlab.com/leonardobestapp/exer_kubernetes; Project: leonardobestapp/exer_kubernetes; Hub provider: gitlab
Aug-12 15:35:09.521 [main] DEBUG nextflow.scm.RepositoryProvider - Request [credentials -:-] -> https://gitlab.com/api/v4/projects/leonardobestapp%2Fexer_kubernetes
Aug-12 15:35:10.456 [main] DEBUG nextflow.scm.RepositoryProvider - Request [credentials -:-] -> https://gitlab.com/api/v4/projects/leonardobestapp%2Fexer_kubernetes/repository/files/nextflow.config?ref=master
Aug-12 15:35:11.170 [main] DEBUG nextflow.config.ConfigBuilder - Found config local: /Users/weiguo/Documents/git_oxford/exer_kubernetes/nextflow.config
Aug-12 15:35:11.173 [main] DEBUG nextflow.config.ConfigBuilder - User config file: https://gitlab.com/leonardobestapp/exer_kubernetes/nextflow.config
Aug-12 15:35:11.173 [main] DEBUG nextflow.config.ConfigBuilder - User config file: /Users/weiguo/Documents/git_oxford/exer_kubernetes/nextflow.config
Aug-12 15:35:11.173 [main] DEBUG nextflow.config.ConfigBuilder - Parsing config file: /Users/weiguo/Documents/git_oxford/exer_kubernetes/nextflow.config
Aug-12 15:35:11.174 [main] DEBUG nextflow.config.ConfigBuilder - Parsing config file: https://gitlab.com/leonardobestapp/exer_kubernetes/nextflow.config
Aug-12 15:35:11.174 [main] DEBUG nextflow.config.ConfigBuilder - Parsing config file: /Users/weiguo/Documents/git_oxford/exer_kubernetes/nextflow.config
Aug-12 15:35:11.191 [main] DEBUG nextflow.config.ConfigBuilder - Applying config profile: `cloud`
Aug-12 15:35:11.659 [main] DEBUG nextflow.config.ConfigBuilder - Applying config profile: `cloud`
Aug-12 15:35:11.662 [main] DEBUG nextflow.config.ConfigBuilder - Applying config profile: `cloud`
Aug-12 15:35:11.668 [main] DEBUG nextflow.config.ConfigBuilder - Available config profiles: [cloud, test, local]
Aug-12 15:35:11.762 [main] DEBUG nextflow.k8s.K8sConfig - Kubernetes workDir=/mnt/data/weiguo/work; projectDir=/mnt/data/projects; volumeClaims=[task-pv-claim]
Aug-12 15:35:11.841 [main] DEBUG nextflow.k8s.K8sDriverLauncher - Created K8s configMap with name: nf-config-8f04b0c4
Aug-12 15:35:29.113 [main] DEBUG nextflow.k8s.K8sDriverLauncher - Wait for pod termination name=nauseous-torvalds
Aug-12 15:35:29.847 [main] DEBUG nextflow.k8s.K8sDriverLauncher - Deleted K8s configMap with name: nf-config-8f04b0c4
