Aug-13 15:53:24.226 [main] DEBUG nextflow.cli.Launcher - $> nextflow kuberun 'https://gitlab.com/leonardobestapp/exer_kubernetes' -c nextflow.config -profile cloud
Aug-13 15:53:24.396 [main] DEBUG nextflow.scm.AssetManager - Repository URL: https://gitlab.com/leonardobestapp/exer_kubernetes; Project: leonardobestapp/exer_kubernetes; Hub provider: gitlab
Aug-13 15:53:24.409 [main] DEBUG nextflow.scm.RepositoryProvider - Request [credentials -:-] -> https://gitlab.com/api/v4/projects/leonardobestapp%2Fexer_kubernetes
Aug-13 15:53:25.087 [main] DEBUG nextflow.scm.RepositoryProvider - Request [credentials -:-] -> https://gitlab.com/api/v4/projects/leonardobestapp%2Fexer_kubernetes/repository/files/nextflow.config?ref=master
Aug-13 15:53:25.349 [main] DEBUG nextflow.config.ConfigBuilder - Found config local: /Users/weiguo/Documents/git_oxford/exer_kubernetes/nextflow.config
Aug-13 15:53:25.352 [main] DEBUG nextflow.config.ConfigBuilder - User config file: https://gitlab.com/leonardobestapp/exer_kubernetes/nextflow.config
Aug-13 15:53:25.352 [main] DEBUG nextflow.config.ConfigBuilder - User config file: /Users/weiguo/Documents/git_oxford/exer_kubernetes/nextflow.config
Aug-13 15:53:25.353 [main] DEBUG nextflow.config.ConfigBuilder - Parsing config file: /Users/weiguo/Documents/git_oxford/exer_kubernetes/nextflow.config
Aug-13 15:53:25.353 [main] DEBUG nextflow.config.ConfigBuilder - Parsing config file: https://gitlab.com/leonardobestapp/exer_kubernetes/nextflow.config
Aug-13 15:53:25.353 [main] DEBUG nextflow.config.ConfigBuilder - Parsing config file: /Users/weiguo/Documents/git_oxford/exer_kubernetes/nextflow.config
Aug-13 15:53:25.374 [main] DEBUG nextflow.config.ConfigBuilder - Applying config profile: `cloud`
Aug-13 15:53:25.917 [main] DEBUG nextflow.config.ConfigBuilder - Applying config profile: `cloud`
Aug-13 15:53:25.920 [main] DEBUG nextflow.config.ConfigBuilder - Applying config profile: `cloud`
Aug-13 15:53:25.926 [main] DEBUG nextflow.config.ConfigBuilder - Available config profiles: [cloud, test, local]
Aug-13 15:53:26.029 [main] ERROR nextflow.cli.Launcher - Unknown Kubernetes context:  -- check config file: /Users/weiguo/.kube/config
java.lang.IllegalArgumentException: Unknown Kubernetes context:  -- check config file: /Users/weiguo/.kube/config
	at sun.reflect.NativeConstructorAccessorImpl.newInstance0(Native Method)
	at sun.reflect.NativeConstructorAccessorImpl.newInstance(NativeConstructorAccessorImpl.java:62)
	at sun.reflect.DelegatingConstructorAccessorImpl.newInstance(DelegatingConstructorAccessorImpl.java:45)
	at java.lang.reflect.Constructor.newInstance(Constructor.java:423)
	at org.codehaus.groovy.reflection.CachedConstructor.invoke(CachedConstructor.java:80)
	at org.codehaus.groovy.reflection.CachedConstructor.doConstructorInvoke(CachedConstructor.java:74)
	at org.codehaus.groovy.runtime.callsite.ConstructorSite$ConstructorSiteNoUnwrap.callConstructor(ConstructorSite.java:84)
	at org.codehaus.groovy.runtime.callsite.CallSiteArray.defaultCallConstructor(CallSiteArray.java:59)
	at org.codehaus.groovy.runtime.callsite.AbstractCallSite.callConstructor(AbstractCallSite.java:237)
	at org.codehaus.groovy.runtime.callsite.AbstractCallSite.callConstructor(AbstractCallSite.java:249)
	at nextflow.k8s.client.ConfigDiscovery.fromConfig(ConfigDiscovery.groovy:99)
	at sun.reflect.NativeMethodAccessorImpl.invoke0(Native Method)
	at sun.reflect.NativeMethodAccessorImpl.invoke(NativeMethodAccessorImpl.java:62)
	at sun.reflect.DelegatingMethodAccessorImpl.invoke(DelegatingMethodAccessorImpl.java:43)
	at java.lang.reflect.Method.invoke(Method.java:498)
	at org.codehaus.groovy.runtime.callsite.PlainObjectMetaMethodSite.doInvoke(PlainObjectMetaMethodSite.java:43)
	at org.codehaus.groovy.runtime.callsite.PogoMetaMethodSite$PogoCachedMethodSiteNoUnwrapNoCoerce.invoke(PogoMetaMethodSite.java:190)
	at org.codehaus.groovy.runtime.callsite.PogoMetaMethodSite.callCurrent(PogoMetaMethodSite.java:58)
	at org.codehaus.groovy.runtime.callsite.CallSiteArray.defaultCallCurrent(CallSiteArray.java:51)
	at org.codehaus.groovy.runtime.callsite.AbstractCallSite.callCurrent(AbstractCallSite.java:156)
	at org.codehaus.groovy.runtime.callsite.AbstractCallSite.callCurrent(AbstractCallSite.java:168)
	at nextflow.k8s.client.ConfigDiscovery.discover(ConfigDiscovery.groovy:55)
	at nextflow.k8s.client.ClientConfig.discover(ClientConfig.groovy:81)
	at nextflow.k8s.K8sConfig.clientDiscovery(K8sConfig.groovy:204)
	at nextflow.k8s.K8sConfig.memoizedMethodPriv$getClient(K8sConfig.groovy:185)
	at sun.reflect.NativeMethodAccessorImpl.invoke0(Native Method)
	at sun.reflect.NativeMethodAccessorImpl.invoke(NativeMethodAccessorImpl.java:62)
	at sun.reflect.DelegatingMethodAccessorImpl.invoke(DelegatingMethodAccessorImpl.java:43)
	at java.lang.reflect.Method.invoke(Method.java:498)
	at org.codehaus.groovy.reflection.CachedMethod.invoke(CachedMethod.java:101)
	at groovy.lang.MetaMethod.doMethodInvoke(MetaMethod.java:323)
	at groovy.lang.MetaClassImpl.invokeMethod(MetaClassImpl.java:1217)
	at groovy.lang.MetaClassImpl.invokeMethod(MetaClassImpl.java:1041)
	at org.codehaus.groovy.runtime.InvokerHelper.invokePogoMethod(InvokerHelper.java:1011)
	at org.codehaus.groovy.runtime.InvokerHelper.invokeMethod(InvokerHelper.java:994)
	at org.codehaus.groovy.runtime.InvokerHelper.invokeMethodSafe(InvokerHelper.java:97)
	at nextflow.k8s.K8sConfig$_closure1.doCall(K8sConfig.groovy)
	at nextflow.k8s.K8sConfig$_closure1.doCall(K8sConfig.groovy)
	at sun.reflect.NativeMethodAccessorImpl.invoke0(Native Method)
	at sun.reflect.NativeMethodAccessorImpl.invoke(NativeMethodAccessorImpl.java:62)
	at sun.reflect.DelegatingMethodAccessorImpl.invoke(DelegatingMethodAccessorImpl.java:43)
	at java.lang.reflect.Method.invoke(Method.java:498)
	at org.codehaus.groovy.reflection.CachedMethod.invoke(CachedMethod.java:101)
	at groovy.lang.MetaMethod.doMethodInvoke(MetaMethod.java:323)
	at org.codehaus.groovy.runtime.metaclass.ClosureMetaClass.invokeMethod(ClosureMetaClass.java:263)
	at groovy.lang.MetaClassImpl.invokeMethod(MetaClassImpl.java:1041)
	at groovy.lang.Closure.call(Closure.java:405)
	at org.codehaus.groovy.runtime.memoize.Memoize$MemoizeFunction$1.provide(Memoize.java:139)
	at org.codehaus.groovy.runtime.memoize.ConcurrentCommonCache.getAndPut(ConcurrentCommonCache.java:147)
	at org.codehaus.groovy.runtime.memoize.ConcurrentCommonCache.getAndPut(ConcurrentCommonCache.java:123)
	at org.codehaus.groovy.runtime.memoize.Memoize$MemoizeFunction.call(Memoize.java:136)
	at groovy.lang.Closure.call(Closure.java:399)
	at nextflow.k8s.K8sConfig.getClient(K8sConfig.groovy)
	at nextflow.k8s.K8sConfig$getClient.call(Unknown Source)
	at org.codehaus.groovy.runtime.callsite.CallSiteArray.defaultCall(CallSiteArray.java:47)
	at org.codehaus.groovy.runtime.callsite.AbstractCallSite.call(AbstractCallSite.java:115)
	at org.codehaus.groovy.runtime.callsite.AbstractCallSite.call(AbstractCallSite.java:119)
	at nextflow.k8s.K8sDriverLauncher.makeK8sClient(K8sDriverLauncher.groovy:230)
	at sun.reflect.NativeMethodAccessorImpl.invoke0(Native Method)
	at sun.reflect.NativeMethodAccessorImpl.invoke(NativeMethodAccessorImpl.java:62)
	at sun.reflect.DelegatingMethodAccessorImpl.invoke(DelegatingMethodAccessorImpl.java:43)
	at java.lang.reflect.Method.invoke(Method.java:498)
	at org.codehaus.groovy.runtime.callsite.PlainObjectMetaMethodSite.doInvoke(PlainObjectMetaMethodSite.java:43)
	at org.codehaus.groovy.runtime.callsite.PogoMetaMethodSite$PogoCachedMethodSiteNoUnwrapNoCoerce.invoke(PogoMetaMethodSite.java:190)
	at org.codehaus.groovy.runtime.callsite.PogoMetaMethodSite.callCurrent(PogoMetaMethodSite.java:58)
	at org.codehaus.groovy.runtime.callsite.CallSiteArray.defaultCallCurrent(CallSiteArray.java:51)
	at org.codehaus.groovy.runtime.callsite.AbstractCallSite.callCurrent(AbstractCallSite.java:156)
	at org.codehaus.groovy.runtime.callsite.AbstractCallSite.callCurrent(AbstractCallSite.java:168)
	at nextflow.k8s.K8sDriverLauncher.run(K8sDriverLauncher.groovy:121)
	at nextflow.cli.CmdKubeRun.run(CmdKubeRun.groovy:74)
	at nextflow.cli.Launcher.run(Launcher.groovy:460)
	at nextflow.cli.Launcher.main(Launcher.groovy:642)
