Aug-12 15:34:03.285 [main] DEBUG nextflow.cli.Launcher - $> nextflow kuberun 'https://gitlab.com/leonardobestapp/exer_kubernetes' -c nextflow.config -profile cloud
Aug-12 15:34:03.435 [main] DEBUG nextflow.scm.AssetManager - Repository URL: https://gitlab.com/leonardobestapp/exer_kubernetes; Project: leonardobestapp/exer_kubernetes; Hub provider: gitlab
Aug-12 15:34:03.443 [main] DEBUG nextflow.scm.RepositoryProvider - Request [credentials -:-] -> https://gitlab.com/api/v4/projects/leonardobestapp%2Fexer_kubernetes
Aug-12 15:34:04.370 [main] DEBUG nextflow.scm.RepositoryProvider - Request [credentials -:-] -> https://gitlab.com/api/v4/projects/leonardobestapp%2Fexer_kubernetes/repository/files/nextflow.config?ref=master
Aug-12 15:34:05.018 [main] DEBUG nextflow.config.ConfigBuilder - Found config local: /Users/weiguo/Documents/git_oxford/exer_kubernetes/nextflow.config
Aug-12 15:34:05.020 [main] DEBUG nextflow.config.ConfigBuilder - User config file: https://gitlab.com/leonardobestapp/exer_kubernetes/nextflow.config
Aug-12 15:34:05.020 [main] DEBUG nextflow.config.ConfigBuilder - User config file: /Users/weiguo/Documents/git_oxford/exer_kubernetes/nextflow.config
Aug-12 15:34:05.020 [main] DEBUG nextflow.config.ConfigBuilder - Parsing config file: /Users/weiguo/Documents/git_oxford/exer_kubernetes/nextflow.config
Aug-12 15:34:05.021 [main] DEBUG nextflow.config.ConfigBuilder - Parsing config file: https://gitlab.com/leonardobestapp/exer_kubernetes/nextflow.config
Aug-12 15:34:05.021 [main] DEBUG nextflow.config.ConfigBuilder - Parsing config file: /Users/weiguo/Documents/git_oxford/exer_kubernetes/nextflow.config
Aug-12 15:34:05.038 [main] DEBUG nextflow.config.ConfigBuilder - Applying config profile: `cloud`
Aug-12 15:34:05.531 [main] DEBUG nextflow.config.ConfigBuilder - Applying config profile: `cloud`
Aug-12 15:34:05.535 [main] DEBUG nextflow.config.ConfigBuilder - Applying config profile: `cloud`
Aug-12 15:34:05.541 [main] DEBUG nextflow.config.ConfigBuilder - Available config profiles: [cloud, test, local]
Aug-12 15:34:05.641 [main] DEBUG nextflow.k8s.K8sConfig - Kubernetes workDir=/mnt/data/weiguo/work; projectDir=/mnt/data/projects; volumeClaims=[task-pv-claim]
Aug-12 15:34:05.725 [main] DEBUG nextflow.k8s.K8sDriverLauncher - Created K8s configMap with name: nf-config-93db7896
Aug-12 15:34:14.763 [main] DEBUG nextflow.k8s.K8sDriverLauncher - Wait for pod termination name=pensive-shirley
